-Wed Oct 23 11:56:51 CDT 2013 -<get_Last_Date_transaction_id >
-Wed Oct 23 11:56:51 CDT 2013 -<2013-10-22 >
-Wed Oct 23 11:56:51 CDT 2013 -<FROM: 2013-10-22 TO: 2013-10-22 >
-Wed Oct 23 11:56:51 CDT 2013 -<get_Last_Date_transaction_id:
Rows: 172 >
-Wed Oct 23 11:56:51 CDT 2013 -<get_Last_Date_campaign_ad_group >
-Wed Oct 23 11:56:52 CDT 2013 -<2013-10-22 >
-Wed Oct 23 11:56:52 CDT 2013 -<FROM: 2013-10-22 TO: 2013-10-22 >
-Wed Oct 23 11:56:53 CDT 2013 -<get_Last_Date_campaign_ad_group:
Rows: 559 >
